<?xml version="1.0" encoding="UTF-8" standalone="no"?>
<!-- Generated by IcoMoon.io -->

<svg
   xmlns:dc="http://purl.org/dc/elements/1.1/"
   xmlns:cc="http://creativecommons.org/ns#"
   xmlns:rdf="http://www.w3.org/1999/02/22-rdf-syntax-ns#"
   xmlns:svg="http://www.w3.org/2000/svg"
   xmlns="http://www.w3.org/2000/svg"
   xmlns:sodipodi="http://sodipodi.sourceforge.net/DTD/sodipodi-0.dtd"
   xmlns:inkscape="http://www.inkscape.org/namespaces/inkscape"
   version="1.1"
   width="16"
   height="22"
   viewBox="0 0 16 22"
   id="svg2"
   inkscape:version="0.48.4 r9939"
   sodipodi:docname="button-linewrapcleanup.svg"
   inkscape:export-filename="/tmp/button-listcleanup.png"
   inkscape:export-xdpi="90"
   inkscape:export-ydpi="90">
  <metadata
     id="metadata12">
    <rdf:RDF>
      <cc:Work
         rdf:about="">
        <dc:format>image/svg+xml</dc:format>
        <dc:type
           rdf:resource="http://purl.org/dc/dcmitype/StillImage" />
        <dc:title />
      </cc:Work>
    </rdf:RDF>
  </metadata>
  <defs
     id="defs10">
    <filter
       inkscape:collect="always"
       id="filter4117"
       x="-0.02629255"
       width="1.0525851"
       y="-0.20316143"
       height="1.4063229">
      <feGaussianBlur
         inkscape:collect="always"
         stdDeviation="0.16930119"
         id="feGaussianBlur4119" />
    </filter>
    <filter
       inkscape:collect="always"
       id="filter4121"
       x="-0.02629255"
       width="1.0525851"
       y="-0.20316143"
       height="1.4063229">
      <feGaussianBlur
         inkscape:collect="always"
         stdDeviation="0.16930119"
         id="feGaussianBlur4123" />
    </filter>
    <filter
       inkscape:collect="always"
       id="filter4125"
       x="-0.02629255"
       width="1.0525851"
       y="-0.20316143"
       height="1.4063229">
      <feGaussianBlur
         inkscape:collect="always"
         stdDeviation="0.16930119"
         id="feGaussianBlur4127" />
    </filter>
    <filter
       inkscape:collect="always"
       id="filter4129"
       x="-0.02629255"
       width="1.0525851"
       y="-0.20316143"
       height="1.4063229">
      <feGaussianBlur
         inkscape:collect="always"
         stdDeviation="0.16930119"
         id="feGaussianBlur4131" />
    </filter>
    <filter
       inkscape:collect="always"
       id="filter4133"
       x="-0.02629255"
       width="1.0525851"
       y="-0.20316143"
       height="1.4063229">
      <feGaussianBlur
         inkscape:collect="always"
         stdDeviation="0.16930119"
         id="feGaussianBlur4135" />
    </filter>
  </defs>
  <sodipodi:namedview
     pagecolor="#8d8d8d"
     bordercolor="#666666"
     borderopacity="1"
     objecttolerance="10"
     gridtolerance="10"
     guidetolerance="10"
     inkscape:pageopacity="0.60784314"
     inkscape:pageshadow="2"
     inkscape:window-width="1920"
     inkscape:window-height="1031"
     id="namedview8"
     showgrid="false"
     inkscape:zoom="29.5"
     inkscape:cx="11.480774"
     inkscape:cy="8.7561432"
     inkscape:window-x="1280"
     inkscape:window-y="0"
     inkscape:window-maximized="1"
     inkscape:current-layer="svg2" />
  <rect
     style="color:#000000;fill:#ffffff;fill-opacity:1;fill-rule:nonzero;stroke:none;stroke-width:30;marker:none;visibility:visible;display:inline;overflow:visible;filter:url(#filter4133);enable-background:accumulate"
     id="rect2989-3"
     width="15.453916"
     height="2"
     x="0.40632287"
     y="2.3728814"
     ry="0.44444439"
     rx="0.64717716"
     transform="scale(0.66657189,1)" />
  <rect
     style="color:#000000;fill:#ffffff;fill-opacity:1;fill-rule:nonzero;stroke:none;stroke-width:30;marker:none;visibility:visible;display:inline;overflow:visible;filter:url(#filter4129);enable-background:accumulate"
     id="rect2989-9-6"
     width="15.453916"
     height="2"
     x="0.40632287"
     y="6.3728814"
     ry="0.44444439"
     rx="0.48156765"
     transform="scale(0.89580372,1)" />
  <rect
     style="color:#000000;fill:#ffffff;fill-opacity:1;fill-rule:nonzero;stroke:none;stroke-width:30;marker:none;visibility:visible;display:inline;overflow:visible;filter:url(#filter4125);enable-background:accumulate"
     id="rect2989-4-9"
     width="15.453916"
     height="2"
     x="0.40632287"
     y="10.372881"
     ry="0.44444439"
     rx="0.47603068"
     transform="scale(0.90622335,1)" />
  <rect
     style="color:#000000;fill:#ffffff;fill-opacity:1;fill-rule:nonzero;stroke:none;stroke-width:30;marker:none;visibility:visible;display:inline;overflow:visible;filter:url(#filter4121);enable-background:accumulate"
     id="rect2989-9-3-3"
     width="15.453916"
     height="2"
     x="0.40632287"
     y="14.372881"
     ry="0.44444439"
     rx="0.54639298"
     transform="scale(0.78952351,1)" />
  <rect
     style="color:#000000;fill:#ffffff;fill-opacity:1;fill-rule:nonzero;stroke:none;stroke-width:30;marker:none;visibility:visible;display:inline;overflow:visible;filter:url(#filter4117);enable-background:accumulate"
     id="rect2989-9-3-5-8"
     width="15.453916"
     height="2"
     x="0.40632287"
     y="18.372881"
     ry="0.44444439"
     rx="0.49777958"
     transform="scale(0.86662876,1)" />
  <g
     id="g4"
     transform="translate(0,-10)" />
  <rect
     style="color:#000000;fill:#000000;fill-opacity:1;fill-rule:nonzero;stroke:none;stroke-width:30;marker:none;visibility:visible;display:inline;overflow:visible;enable-background:accumulate"
     id="rect2989"
     width="10.301146"
     height="2"
     x="0.11267381"
     y="2"
     ry="0.44444439"
     rx="0.43139011" />
  <rect
     style="color:#000000;fill:#000000;fill-opacity:1;fill-rule:nonzero;stroke:none;stroke-width:30;marker:none;visibility:visible;display:inline;overflow:visible;enable-background:accumulate"
     id="rect2989-9"
     width="13.843676"
     height="2"
     x="0.15142195"
     y="6"
     ry="0.44444439"
     rx="0.43139011" />
  <rect
     style="color:#000000;fill:#000000;fill-opacity:1;fill-rule:nonzero;stroke:none;stroke-width:30;marker:none;visibility:visible;display:inline;overflow:visible;enable-background:accumulate"
     id="rect2989-4"
     width="14.0047"
     height="2"
     x="0.15318322"
     y="10"
     ry="0.44444439"
     rx="0.43139011" />
  <rect
     style="color:#000000;fill:#000000;fill-opacity:1;fill-rule:nonzero;stroke:none;stroke-width:30;marker:none;visibility:visible;display:inline;overflow:visible;enable-background:accumulate"
     id="rect2989-9-3"
     width="12.20123"
     height="2"
     x="0.1334569"
     y="14"
     ry="0.44444439"
     rx="0.43139011" />
  <rect
     style="color:#000000;fill:#000000;fill-opacity:1;fill-rule:nonzero;stroke:none;stroke-width:30;marker:none;visibility:visible;display:inline;overflow:visible;enable-background:accumulate"
     id="rect2989-9-3-5"
     width="13.392808"
     height="2"
     x="0.14649038"
     y="18"
     ry="0.44444439"
     rx="0.43139011" />
</svg>
