<?xml version="1.0" encoding="UTF-8" standalone="no"?>
<!-- Generated by IcoMoon.io -->

<svg
   xmlns:dc="http://purl.org/dc/elements/1.1/"
   xmlns:cc="http://creativecommons.org/ns#"
   xmlns:rdf="http://www.w3.org/1999/02/22-rdf-syntax-ns#"
   xmlns:svg="http://www.w3.org/2000/svg"
   xmlns="http://www.w3.org/2000/svg"
   xmlns:sodipodi="http://sodipodi.sourceforge.net/DTD/sodipodi-0.dtd"
   xmlns:inkscape="http://www.inkscape.org/namespaces/inkscape"
   version="1.1"
   width="20"
   height="22"
   viewBox="0 0 20 22"
   id="svg2"
   inkscape:version="0.48.4 r9939"
   sodipodi:docname="carpool-passenger.svg">
  <metadata
     id="metadata12">
    <rdf:RDF>
      <cc:Work
         rdf:about="">
        <dc:format>image/svg+xml</dc:format>
        <dc:type
           rdf:resource="http://purl.org/dc/dcmitype/StillImage" />
      </cc:Work>
    </rdf:RDF>
  </metadata>
  <defs
     id="defs10" />
  <sodipodi:namedview
     pagecolor="#ffffff"
     bordercolor="#666666"
     borderopacity="1"
     objecttolerance="10"
     gridtolerance="10"
     guidetolerance="10"
     inkscape:pageopacity="0"
     inkscape:pageshadow="2"
     inkscape:window-width="1920"
     inkscape:window-height="1031"
     id="namedview8"
     showgrid="true"
     inkscape:zoom="29.5"
     inkscape:cx="20.055872"
     inkscape:cy="11.55021"
     inkscape:window-x="1280"
     inkscape:window-y="0"
     inkscape:window-maximized="1"
     inkscape:current-layer="svg2">
    <inkscape:grid
       type="xygrid"
       id="grid2989"
       empspacing="5"
       visible="true"
       enabled="true"
       snapvisiblegridlinesonly="true" />
  </sodipodi:namedview>
  <g
     id="g4"
     transform="translate(0,-10)" />
  <path
     d="m 16.663083,17.820051 q 0,-0.338248 0.247125,-0.586102 0.247125,-0.247854 0.586102,-0.247125 0.338977,7.29e-4 0.586102,0.247125 0.247125,0.246396 0.247125,0.586102 0,0.339706 -0.247125,0.586102 -0.247125,0.246396 -0.586102,0.247125 -0.338977,7.29e-4 -0.586102,-0.247125 -0.247125,-0.247854 -0.247125,-0.586102 z M 1.666454,10.321737 q 0,-0.664103 0.507372,-1.164914 0.507372,-0.500811 1.158354,-0.50154 h 4.582384 q 0,-0.7552259 -0.624738,-2.0761422 -0.624738,-1.3209163 -0.624738,-2.0892639 0,-1.2757194 0.416249,-1.8873358 0.416249,-0.6116163 1.666454,-0.6116163 0.338248,0.3382479 0.494979,1.1065955 0.156731,0.7683475 0.397295,1.6336498 0.240565,0.8653023 0.774909,1.4251608 0.28649,0.2996118 1.002351,1.1845966 0.05176,0.064879 0.299612,0.3907347 0.247853,0.3258548 0.410417,0.5336148 0.162563,0.20776 0.449053,0.553298 0.28649,0.345538 0.520493,0.57298 0.234004,0.227443 0.50154,0.462175 0.267537,0.234733 0.520494,0.35137 0.252957,0.116637 0.462175,0.117366 h 0.416249 v 8.331541 h -0.416249 q -0.169124,0 -0.410417,0.03937 -0.241294,0.03937 -0.429371,0.08456 -0.188077,0.0452 -0.494979,0.14288 -0.306902,0.09768 -0.455614,0.149442 -0.148713,0.05176 -0.462175,0.162563 -0.313463,0.110805 -0.377613,0.137049 -2.746806,0.950593 -4.451896,0.950593 H 5.923712 q -2.499681,0 -2.499681,-2.173826 0,-0.338248 0.06488,-0.728982 Q 3.098176,17.209167 2.870734,16.73387 2.643291,16.258573 2.642562,15.776716 2.641833,15.294858 2.876565,14.878609 2.186948,14.227628 2.186948,13.329522 q 0,-0.325127 0.130488,-0.722422 0.130488,-0.397296 0.325126,-0.618177 -0.416249,-0.01312 -0.696178,-0.611617 -0.27993,-0.598494 -0.27993,-1.054108 z M 0,10.308617 q 0,1.158353 0.63786,2.122068 -0.117366,0.429371 -0.117366,0.898107 0,1.002351 0.494979,1.874214 -0.03937,0.273368 -0.03937,0.559858 0,1.315085 0.78074,2.317436 -0.01312,1.809334 1.106596,2.857611 1.119722,1.048275 2.9553,1.048275 h 1.679576 q 1.249476,0 2.466876,-0.293051 1.217401,-0.293051 2.818247,-0.85291 1.509723,-0.520493 1.796213,-0.520493 h 3.749157 q 0.689617,0 1.178036,-0.488418 0.488418,-0.488419 0.488418,-1.178036 v -8.331541 q 0,-0.689617 -0.488418,-1.178036 Q 19.018425,8.655283 18.328808,8.655283 H 14.761897 Q 14.293161,8.34255 12.978805,6.6374594 12.223579,5.6613518 11.58572,4.9710054 11.272986,4.6458791 11.123545,3.857849 10.974103,3.0698189 10.726249,2.2110775 10.478395,1.3523361 9.919266,0.8048703 9.411894,0.3230128 8.747791,0.3230128 q -1.093474,0 -1.965337,0.4228099 Q 5.910591,1.1686326 5.454977,2.067468 4.999363,2.9663034 4.999363,4.4884189 q 0,1.21084 0.624738,2.4996811 H 3.332908 q -1.35372,0 -2.342949,0.9892293 Q 7.29e-4,8.966559 7.29e-4,10.307157 z"
     id="path6"
     inkscape:connector-curvature="0"
     style="fill:#000000" />
</svg>
