<?xml version="1.0" encoding="UTF-8" standalone="no"?>
<!-- Created with Inkscape (http://www.inkscape.org/) -->

<svg
   xmlns:dc="http://purl.org/dc/elements/1.1/"
   xmlns:cc="http://creativecommons.org/ns#"
   xmlns:rdf="http://www.w3.org/1999/02/22-rdf-syntax-ns#"
   xmlns:svg="http://www.w3.org/2000/svg"
   xmlns="http://www.w3.org/2000/svg"
   xmlns:sodipodi="http://sodipodi.sourceforge.net/DTD/sodipodi-0.dtd"
   xmlns:inkscape="http://www.inkscape.org/namespaces/inkscape"
   width="17"
   height="21"
   id="svg2"
   version="1.1"
   inkscape:version="0.48.4 r9939"
   sodipodi:docname="page-dayrank1.svg">
  <defs
     id="defs4" />
  <sodipodi:namedview
     id="base"
     pagecolor="#ffffff"
     bordercolor="#666666"
     borderopacity="1.0"
     inkscape:pageopacity="0.0"
     inkscape:pageshadow="2"
     inkscape:zoom="15.839192"
     inkscape:cx="26.975937"
     inkscape:cy="0.15127461"
     inkscape:document-units="px"
     inkscape:current-layer="layer1"
     showgrid="false"
     inkscape:window-width="1920"
     inkscape:window-height="1031"
     inkscape:window-x="1280"
     inkscape:window-y="0"
     inkscape:window-maximized="1" />
  <metadata
     id="metadata7">
    <rdf:RDF>
      <cc:Work
         rdf:about="">
        <dc:format>image/svg+xml</dc:format>
        <dc:type
           rdf:resource="http://purl.org/dc/dcmitype/StillImage" />
        <dc:title />
      </cc:Work>
    </rdf:RDF>
  </metadata>
  <g
     inkscape:label="Layer 1"
     inkscape:groupmode="layer"
     id="layer1"
     transform="translate(0,-1031.3622)">
    <rect
       rx="7.585515"
       style="fill:#f2f2f2;fill-opacity:1;stroke:#666666;stroke-width:1.72812808;stroke-miterlimit:4;stroke-opacity:1;stroke-dasharray:none;display:inline;enable-background:new"
       id="de_dayrank1"
       width="14.536433"
       height="18.602573"
       x="1.2317834"
       y="1032.5609"
       ry="7.585515"
       inkscape:label="#rect5411" />
    <text
       xml:space="preserve"
       style="font-size:16.24651718px;font-style:normal;font-weight:normal;fill:#d40000;fill-opacity:1;stroke:none;display:inline;enable-background:new;font-family:Bitstream Vera Sans"
       x="2.7821374"
       y="1047.7841"
       id="text5707-9"><tspan
         sodipodi:role="line"
         id="tspan5709-0"
         x="2.7821374"
         y="1047.7841"
         style="font-weight:bold;-inkscape-font-specification:Bitstream Vera Sans Bold">!</tspan></text>
    <text
       xml:space="preserve"
       style="font-size:16.24651718px;font-style:normal;font-weight:normal;fill:#d40000;fill-opacity:1;stroke:none;display:inline;enable-background:new;font-family:Bitstream Vera Sans"
       x="7.1205773"
       y="1047.7841"
       id="text5715-0"><tspan
         sodipodi:role="line"
         id="tspan5717-5"
         x="7.1205773"
         y="1047.7841"
         style="font-weight:bold;-inkscape-font-specification:Bitstream Vera Sans Bold">!</tspan></text>
  </g>
</svg>
